{
    "nodesOrgC": [
      {
        "rpc": "https://u0jl3gnpar-u0lzqfghx5-rpc.us-east-2.kaleido.io",
        "C_ID": "0xE4b77A9182f935d05b312E0A72AA52Ba58343D11"
      }
    ],
    "nodesOrgB": [
      {
        "rpc": "https://u0jl3gnpar-u0lrn5gy1r-rpc.us-east-2.kaleido.io",
        "C_ID": "0x933f0CF9dBec3450f6E06AeD9B05a1939e8f68a4"
      },
      {
        "rpc": "https://u0jl3gnpar-u0hztqtyq0-rpc.us-east-2.kaleido.io",
        "C_ID": "0x84fa648B651Ed468809636dcC2CbD48E8Aab2aa3"
      },
      {
        "rpc": "https://u0jl3gnpar-u0pbi8djks-rpc.us-east-2.kaleido.io",
        "C_ID": "0x78b02bCE40B55F17d4Ab5098C7Bb2569aefa8eBc"
      },
      {
       "rpc": "https://u0jl3gnpar-u0dzcutm61-rpc.us-east-2.kaleido.io",
       "C_ID": "0x3B72d8C04CaeC68C9385bc680B2F1c472357CcF4"
      },
      {
        "rpc": "https://u0jl3gnpar-u0d0o7hdfo-rpc.us-east-2.kaleido.io",
        "C_ID": "0x0e8d2377eFD540c19Efa1B07c91e73d177B6c952"
      },
      {
       "rpc": "https://u0jl3gnpar-u0l230ly8m-rpc.us-east-2.kaleido.io",
       "C_ID": "0x7389B261D189D0AbCAbFD019Cc89E65325987a5c"
      },
      {
       "rpc": "https://u0jl3gnpar-u0uzns6y0m-rpc.us-east-2.kaleido.io",
        "C_ID": "0xd8671Dd02Ef9629E350BC886a7F23B33eF8c4071" 
     },
     {"rpc": "https://u0jl3gnpar-u0jrnla78g-rpc.us-east-2.kaleido.io",
      "C_ID": "0x70AE01E620d2C755DcA5dD486244c81aD9746376"
    },
     {"rpc": "https://u0jl3gnpar-u0bg2krr1f-rpc.us-east-2.kaleido.io",
      "C_ID": "0x70AE01E620d2C755DcA5dD486244c81aD9746376"
    },
     {"rpc": "https://u0jl3gnpar-u0fdz0zcvd-rpc.us-east-2.kaleido.io",
      "C_ID": "0xc66f9f0E52fE757727bDe72C92071B5039343E40"
    },
     {"rpc": "https://u0jl3gnpar-u0lq83jld5-rpc.us-east-2.kaleido.io",
      "C_ID": "0x44E70F7a5B97c6D733EE21f64d4C0Be5D9Ef268E"
    },
     {"rpc": "https://u0jl3gnpar-u0kwamuj94-rpc.us-east-2.kaleido.io",
      "C_ID": "0x91f4E9CC3445a8ccaa4c45D7a405C7d62FD50144"
    },
     {"rpc": "https://u0jl3gnpar-u0m2qzrbg8-rpc.us-east-2.kaleido.io",
      "C_ID": "0x80bd619091482C3151fC1D5957F2750e48E84B7f"
    },
     {
       "rpc": "https://u0jl3gnpar-u0lfh9zthw-rpc.us-east-2.kaleido.io",
       "C_ID": "0x80bd619091482C3151fC1D5957F2750e48E84B7f"
    },
    {"rpc": "https://u0jl3gnpar-u0ttzxukrs-rpc.us-east-2.kaleido.io",
      "C_ID": "0x3E50f5b57De3E2a1D9170649f4bdDFfbB455FB40"
    },
    {
      "rpc": "https://u0jl3gnpar-u0nkxqykeo-rpc.us-east-2.kaleido.io",
      "C_ID": "0x11b454eB6953F81755c5761e3672Aa745a46AE8C"
    },
     {"rpc": "https://u0jl3gnpar-u0eq9b2jpw-rpc.us-east-2.kaleido.io",
      "C_ID": "0x023D5223964A6885e2e435f61f9e9aD6FC373585"
    },
     {"rpc": "https://u0jl3gnpar-u0u4euuvfl-rpc.us-east-2.kaleido.io",
      "C_ID": "0x9a514E773b35C833BE658D74fAcD23b4961aDf33"
    },
     {"rpc": "https://u0jl3gnpar-u0evezyxvz-rpc.us-east-2.kaleido.io",
      "C_ID": "0x456B431819e16d6D3fEBCE5ba22a68CD1eADfCC9"
    },
     {"rpc": "https://u0jl3gnpar-u0jx1bkvhq-rpc.us-east-2.kaleido.io",
      "C_ID": "0x1746029C20A2Bb6d6C02C032AAE1F4Efb673eaD3"
    },
     {"rpc": "https://u0jl3gnpar-u0a4o96t8q-rpc.us-east-2.kaleido.io",
      "C_ID": "0x63e7300a83750D353e4E72cf85E1Fbe0F5A578FB"
    },
     {"rpc": "https://u0jl3gnpar-u0xg6sgfci-rpc.us-east-2.kaleido.io",
      "C_ID": "0x1a28Cfb22Abf491D8aeE4798c3c1b3B0181b9f31"
    },
     {"rpc": "https://u0jl3gnpar-u0lb3c8lit-rpc.us-east-2.kaleido.io",
      "C_ID": "0xCFc18c1009dB1C44d86fF7c1246B60fD813c4130"
    },
     {"rpc": "https://u0jl3gnpar-u0rjzj3h63-rpc.us-east-2.kaleido.io",
      "C_ID": "0x3A929679537772D0DA2aA7B3471610274B3e2E25"
    },
     {"rpc": "https://u0jl3gnpar-u0srz54ans-rpc.us-east-2.kaleido.io",
      "C_ID": "0xda179761121c6Aef7Fa840eaBc76Dfe1C01D171A"
    },
     {"rpc": "https://u0jl3gnpar-u0y9qcppr9-rpc.us-east-2.kaleido.io",
      "C_ID": "0x5cef39603F19C7B947F24dA91b797E71c10dc107"
    },
     {"rpc": "https://u0jl3gnpar-u0j93qpxxw-rpc.us-east-2.kaleido.io",
      "C_ID": "0xf2898f075cBb6f2a4c1e91a899ca74452552F4E4"
    },
     {"rpc": "https://u0jl3gnpar-u0yetovijk-rpc.us-east-2.kaleido.io",
      "C_ID": "0xa1ac49229A6559177e256c5dE84bdC40c55C7dc2"
    },
     {"rpc": "https://u0jl3gnpar-u0cx218evn-rpc.us-east-2.kaleido.io",
      "C_ID": "0x834c28D7c27580cE0508e78d1465b4A945Ee738B"
    },
     {"rpc": "https://u0jl3gnpar-u0zbgii1ae-rpc.us-east-2.kaleido.io",
      "C_ID": "0xc8FCE2f5D0fbBA9fE398DC3AC59dBc1bFCf3b93B"
    },
     {"rpc": "https://u0jl3gnpar-u0va3gkr25-rpc.us-east-2.kaleido.io",
      "C_ID": "0x558E5647c6FE27cB0F888091DDaa6AdF798925D7"
    },
     {"rpc": "https://u0jl3gnpar-u0fnkgbt6o-rpc.us-east-2.kaleido.io",
      "C_ID": "0x1e360856A724fC8d4620584af6b0b2131eE4cCcf"
    },
     {"rpc": "https://u0jl3gnpar-u0rzep6o07-rpc.us-east-2.kaleido.io",
      "C_ID": "0x129342248D56784256F7F540fd7FcA12352774cf"
    },
     {"rpc": "https://u0jl3gnpar-u0ru6qjfmz-rpc.us-east-2.kaleido.io",
      "C_ID": "0x2203B7439d7104282A5577e3Ac5587669cE28dDc"
    },
     {"rpc": "https://u0jl3gnpar-u0cq5w12xr-rpc.us-east-2.kaleido.io",
      "C_ID": "0x5cAF939e44712a209a9387B991427dA86869e490"
    },
     {"rpc": "https://u0jl3gnpar-u0msnmzb4c-rpc.us-east-2.kaleido.io",
      "C_ID": "0x8AA5aAd9E45192b52636f89CfA1165Ef1d604bBd"
    },
     {"rpc": "https://u0jl3gnpar-u0yjtqyt7e-rpc.us-east-2.kaleido.io",
      "C_ID": "0x9b4ebdde7B4B0a8A125Fa6C5a91a67E91079D7C1"
    },
     {"rpc": "https://u0jl3gnpar-u0loqynzyg-rpc.us-east-2.kaleido.io",
      "C_ID": "0x08076ac9D5Ded690B09A377F3EB308597755544C"
    },
     {"rpc": "https://u0jl3gnpar-u0nt00maw1-rpc.us-east-2.kaleido.io",
      "C_ID": "0xb01166055CCA45bA20E5C8780b67c8D4D87dC173"
    },
     {"rpc": "https://u0jl3gnpar-u0cyb7iqcq-rpc.us-east-2.kaleido.io",
      "C_ID": "0x56F1881c49571a1F6622c106F7b5d2088598bE5f"
    },
     {"rpc": "https://u0jl3gnpar-u0qj8fsxez-rpc.us-east-2.kaleido.io",
      "C_ID": "0x560730991413fA6904Bd4d4db031788A5eed4A4D"
    },
     {"rpc": "https://u0jl3gnpar-u0gbniq8s6-rpc.us-east-2.kaleido.io",
      "C_ID": "0x1a712df795461b79a611147453FE01298AF5656B"
    },
     {"rpc": "https://u0jl3gnpar-u0ntjv4191-rpc.us-east-2.kaleido.io",
      "C_ID": "0xaC0756E0349E50DC7f0aFEc2a7150D2f9459584B"
    },
     {"rpc": "https://u0jl3gnpar-u0riydh9hy-rpc.us-east-2.kaleido.io",
      "C_ID": "0x2e665e3751Fd85cF5499923f55b31569f587BC67"
    },
     {"rpc": "https://u0jl3gnpar-u0mcjkckbd-rpc.us-east-2.kaleido.io",
      "C_ID": "0xFD82C51E84E6a971554155c1523a3cB66Cc0c95C"
    },
     {"rpc": "https://u0jl3gnpar-u0xm075u3a-rpc.us-east-2.kaleido.io",
      "C_ID": "0x9545385c206e78A439c6CE20395bb2588fb6E5DD"
    },
     {"rpc": "https://u0jl3gnpar-u0qbd3xycj-rpc.us-east-2.kaleido.io",
      "C_ID": "0xF5d8d178D306F98D0067ff1eDc7b0Ab69Ec69b72"
    },
     {"rpc": "https://u0jl3gnpar-u0ngfgv0jq-rpc.us-east-2.kaleido.io",
      "C_ID": "0x1bB91CC9192746888E62E8717F4Cfd02588f90b7"
    },
     {"rpc": "https://u0jl3gnpar-u0rbxdbl4g-rpc.us-east-2.kaleido.io",
      "C_ID": "0x8Fd92261249002a8e958FC651c1052adc8ff7A06"
    }
  ]
}